{
  "shell_port": 48369,
  "iopub_port": 59357,
  "stdin_port": 47291,
  "control_port": 56749,
  "hb_port": 48379,
  "ip": "127.0.0.1",
  "key": "6e89228a-2b9e3bb9d4cf5829d5315daf",
  "transport": "tcp",
  "signature_scheme": "hmac-sha256",
  "kernel_name": ""
}