{
  "base_url": "/user/lin_zhu-mt15-2021-tp4-acm-u324wa4o/",
  "hostname": "0.0.0.0",
  "notebook_dir": "/home/jovyan",
  "password": false,
  "pid": 18,
  "port": 8888,
  "secure": false,
  "sock": "",
  "token": "cgO8VtU0R7O9OviFvsq6mQ",
  "url": "http://0.0.0.0:8888/user/lin_zhu-mt15-2021-tp4-acm-u324wa4o/"
}